ch1.csv

Model,MSO4104B-L
Firmware Version,2.90

Waveform Type,ANALOG
Point Format,Y
Horizontal Units,s
Horizontal Scale,0.02
Horizontal Delay,0.0488
Sample Interval,2e-05
Record Length,10000
Gating,0.0% to 100.0%
Probe Attenuation,10
Vertical Units,V
Vertical Offset,0
Vertical Scale,0.05
Vertical Position,0.16
,
,
,
Label,BATT_V
TIME,CH1
-5.1200e-02,0.00250781
-5.1180e-02,-0.0049375
-5.1160e-02,-0.0054375
-5.1140e-02,0.00427344
-5.1120e-02,0.00250781
-5.1100e-02,0.00340625
-5.1080e-02,0.00251563
-5.1060e-02,-0.00974219
-5.1040e-02,3.125e-05
-5.1020e-02,0.00411719
-5.1000e-02,0.000390625
-5.0980e-02,0.00367969
-5.0960e-02,0.00541406
-5.0940e-02,-0.00860938
-5.0920e-02,0.00677344
-5.0900e-02,0.00457031
-5.0880e-02,-0.000601562
-5.0860e-02,0.00558594
-5.0840e-02,-0.00598438
-5.0820e-02,-0.0114219
-5.0800e-02,-0.00375781
-5.0780e-02,-0.00542969
-5.0760e-02,-0.00379687
-5.0740e-02,0.0111016
-5.0720e-02,0.00310156
-5.0700e-02,-0.00230469
-5.0680e-02,0.005
-5.0660e-02,0.00124219
-5.0640e-02,-0.00247656
-5.0620e-02,0.00739844
-5.0600e-02,-0.00796094
-5.0580e-02,-0.000453125
-5.0560e-02,0.00684375
-5.0540e-02,-0.00285156
-5.0520e-02,0.00390625
-5.0500e-02,-0.00248438
-5.0480e-02,-0.00803906
-5.0460e-02,0.00117187
-5.0440e-02,0.0121094
-5.0420e-02,-0.00346875
-5.0400e-02,-0.00223438
-5.0380e-02,-0.0009375
-5.0360e-02,-0.00760156
-5.0340e-02,0.00301562
-5.0320e-02,0.00871094
-5.0300e-02,0.00134375
-5.0280e-02,0.00046875
-5.0260e-02,-0.00291406
-5.0240e-02,-0.00758594
-5.0220e-02,0.00425
-5.0200e-02,0.00927344
-5.0180e-02,-0.00250781
-5.0160e-02,0.000757812
-5.0140e-02,-0.000460938
-5.0120e-02,-0.0109219
-5.0100e-02,0.00601563
-5.0080e-02,0.00847656
-5.0060e-02,0.00427344
-5.0040e-02,-0.00236719
-5.0020e-02,0.001125
-5.0000e-02,-0.00271094
-4.9980e-02,0.00714844
-4.9960e-02,0.00835937
-4.9940e-02,-0.00408594
-4.9920e-02,0.00639844
-4.9900e-02,-0.00128125
-4.9880e-02,-0.00151562
-4.9860e-02,-0.0018125
-4.9840e-02,-0.00438281
-4.9820e-02,-0.0119844
-4.9800e-02,-0.00332031
-4.9780e-02,-0.00591406
-4.9760e-02,-0.0118906
-4.9740e-02,-0.00132031
-4.9720e-02,0.00289844
-4.9700e-02,-0.00679687
-4.9680e-02,0.0141094
-4.9660e-02,0.00310156
-4.9640e-02,0.000335937
-4.9620e-02,0.0128594
-4.9600e-02,0.00025
-4.9580e-02,0.00149219
-4.9560e-02,0.0131719
-4.9540e-02,0.00517969
-4.9520e-02,-0.00296094
-4.9500e-02,0.00264844
-4.9480e-02,0.00185937
-4.9460e-02,-0.00319531
-4.9440e-02,0.00575781
-4.9420e-02,0.0015625
-4.9400e-02,0.00096875
-4.9380e-02,0.00294531
-4.9360e-02,-0.00235938
-4.9340e-02,0.000203125
-4.9320e-02,0.00569531
-4.9300e-02,0.001375
-4.9280e-02,0.00114062
-4.9260e-02,0.00158594
-4.9240e-02,-0.00128125
-4.9220e-02,-0.00892188
-4.9200e-02,0.00964844
-4.9180e-02,-0.00171875
-4.9160e-02,0.00189844
-4.9140e-02,-0.00201563
-4.9120e-02,-0.001
-4.9100e-02,-0.00725781
-4.9080e-02,0.00667188
-4.9060e-02,-0.00221094
-4.9040e-02,0.00226563
-4.9020e-02,0.00394531
-4.9000e-02,-0.00226563
-4.8980e-02,0.00132812
-4.8960e-02,0.00926562
-4.8940e-02,-0.00613281
-4.8920e-02,-0.00339844
-4.8900e-02,-0.00141406
-4.8880e-02,-0.00753125
-4.8860e-02,-0.00915625
-4.8840e-02,0.002
-4.8820e-02,0.00339062
-4.8800e-02,-0.00666406
-4.8780e-02,0.00746094
-4.8760e-02,3.125e-05
-4.8740e-02,0.000351562
-4.8720e-02,0.00371875
-4.8700e-02,-0.000140625
-4.8680e-02,0.00142187
-4.8660e-02,-0.00126563
-4.8640e-02,0.0011875
-4.8620e-02,-0.00991406
-4.8600e-02,0.0093125
-4.8580e-02,-0.000484375
-4.8560e-02,-0.00534375
-4.8540e-02,0.00827344
-4.8520e-02,-0.00210156
-4.8500e-02,-0.00528125
-4.8480e-02,0.00228125
-4.8460e-02,0.00275781
-4.8440e-02,0.000492187
-4.8420e-02,-0.00329688
-4.8400e-02,0.00314844
-4.8380e-02,-0.008625
-4.8360e-02,0.003375
-4.8340e-02,0.00107812
-4.8320e-02,-0.00629688
-4.8300e-02,0.00404688
-4.8280e-02,-0.00428125
-4.8260e-02,-0.00208594
-4.8240e-02,-0.00298438
-4.8220e-02,0.0118281
-4.8200e-02,0.000125
-4.8180e-02,0.00240625
-4.8160e-02,0.00053125
-4.8140e-02,0.00482813
-4.8120e-02,0.00575781
-4.8100e-02,0.00841406
-4.8080e-02,0.00245313
-4.8060e-02,0.00494531
-4.8040e-02,0.00701562
-4.8020e-02,-0.0019375
-4.8000e-02,-0.00605469
-4.7980e-02,0.00015625
-4.7960e-02,-0.00338281
-4.7940e-02,-0.00227344
-4.7920e-02,0.0109141
-4.7900e-02,0.00232813
-4.7880e-02,-0.0025
-4.7860e-02,0.00402344
-4.7840e-02,-0.00101563
-4.7820e-02,-0.0115078
-4.7800e-02,-0.00141406
-4.7780e-02,-0.00879688
-4.7760e-02,-0.0135625
-4.7740e-02,-0.00028125
-4.7720e-02,-0.000328125
-4.7700e-02,-0.00230469
-4.7680e-02,0.0123281
-4.7660e-02,-0.000398438
-4.7640e-02,-0.00653906
-4.7620e-02,0.0019375
-4.7600e-02,0.000382812
-4.7580e-02,-0.00319531
-4.7560e-02,0.00728125
-4.7540e-02,0.0013125
-4.7520e-02,-0.0145078
-4.7500e-02,-0.00171875
-4.7480e-02,-0.00207031
-4.7460e-02,0.000390625
-4.7440e-02,0.00898437
-4.7420e-02,0.00760937
-4.7400e-02,-0.00350781
-4.7380e-02,-0.00271094
-4.7360e-02,0.00855469
-4.7340e-02,-0.000390625
-4.7320e-02,-0.00653125
-4.7300e-02,0.00783594
-4.7280e-02,-0.00799219
-4.7260e-02,-0.00910156
-4.7240e-02,0.00445313
-4.7220e-02,-0.00224219
-4.7200e-02,-0.00141406
-4.7180e-02,0.00288281
-4.7160e-02,-0.00727344
-4.7140e-02,-0.00519531
-4.7120e-02,-0.00507031
-4.7100e-02,0.00284375
-4.7080e-02,0.005
-4.7060e-02,-0.00353906
-4.7040e-02,0.00620313
-4.7020e-02,0.00459375
-4.7000e-02,0.00825781
-4.6980e-02,0.00139062
-4.6960e-02,-0.00615625
-4.6940e-02,0.004125
-4.6920e-02,0.00252344
-4.6900e-02,-0.00496875
-4.6880e-02,-0.00198438
-4.6860e-02,-0.00934375
-4.6840e-02,-0.0123984
-4.6820e-02,-0.00935937
-4.6800e-02,-0.00502344
-4.6780e-02,-0.00502344
-4.6760e-02,-0.0043125
-4.6740e-02,0.00990625
-4.6720e-02,0.0115469
-4.6700e-02,-0.007875
-4.6680e-02,0.00708594
-4.6660e-02,0.0132891
-4.6640e-02,-0.00738281
-4.6620e-02,0.00810937
-4.6600e-02,-0.0035
-4.6580e-02,-0.0111641
-4.6560e-02,-0.000390625
-4.6540e-02,0.00446875
-4.6520e-02,-0.0034375
-4.6500e-02,-0.000179687
-4.6480e-02,0.00769531
-4.6460e-02,-0.00748437
-4.6440e-02,-0.00689844
-4.6420e-02,0.0030625
-4.6400e-02,-0.00423438
-4.6380e-02,0.000695312
-4.6360e-02,0.000835937
-4.6340e-02,0.00127344
-4.6320e-02,-0.00471094
-4.6300e-02,-0.00403125
-4.6280e-02,-0.000914062
-4.6260e-02,-0.00410938
-4.6240e-02,-0.00442969
-4.6220e-02,0.00497656
-4.6200e-02,0.00171875
-4.6180e-02,-0.00567969
-4.6160e-02,0.00497656
-4.6140e-02,-0.00732031
-4.6120e-02,-0.0194922
-4.6100e-02,0.0170078
-4.6080e-02,0.0100156
-4.6060e-02,-0.0129453
-4.6040e-02,0.000726562
-4.6020e-02,0.00834375
-4.6000e-02,-0.0106719
-4.5980e-02,0.00132031
-4.5960e-02,0.00397656
-4.5940e-02,-0.002
-4.5920e-02,0.00441406
-4.5900e-02,0.00821094
-4.5880e-02,-0.00127344
-4.5860e-02,-0.00626563
-4.5840e-02,-0.000210938
-4.5820e-02,-0.0128359
-4.5800e-02,-0.0121563
-4.5780e-02,-0.00932031
-4.5760e-02,-0.0116953
-4.5740e-02,-0.015125
-4.5720e-02,0.00197656
-4.5700e-02,-0.00519531
-4.5680e-02,-0.00669531
-4.5660e-02,0.0019375
-4.5640e-02,-0.00248438
-4.5620e-02,0.00559375
-4.5600e-02,0.00702344
-4.5580e-02,0.00244531
-4.5560e-02,3.125e-05
-4.5540e-02,0.009
-4.5520e-02,-0.00325
-4.5500e-02,-0.0010625
-4.5480e-02,0.00246875
-4.5460e-02,-0.00649219
-4.5440e-02,-0.00359375
-4.5420e-02,-0.00152344
-4.5400e-02,-0.0124375
-4.5380e-02,0.00471875
-4.5360e-02,-7.8125e-05
-4.5340e-02,0.000132812
-4.5320e-02,0.00339844
-4.5300e-02,-0.00414844
-4.5280e-02,-0.00735156
-4.5260e-02,-0.00379687
-4.5240e-02,-0.000359375
-4.5220e-02,-0.00715625
-4.5200e-02,0.00234375
-4.5180e-02,0.00475781
-4.5160e-02,-0.0100469
-4.5140e-02,-0.000226563
-4.5120e-02,-0.00319531
-4.5100e-02,-0.0109062
-4.5080e-02,-0.00103125
-4.5060e-02,0.001375
-4.5040e-02,-0.009375
-4.5020e-02,-0.000703125
-4.5000e-02,-0.00957031
-4.4980e-02,-0.0151719
-4.4960e-02,-0.00544531
-4.4940e-02,0.000398437
-4.4920e-02,0.00226563
-4.4900e-02,-0.00254687
-4.4880e-02,-0.00420313
-4.4860e-02,0.00748437
-4.4840e-02,0.01375
-4.4820e-02,-0.00335938
-4.4800e-02,0.00239844
-4.4780e-02,-0.00247656
-4.4760e-02,-0.0121875
-4.4740e-02,-0.0119688
-4.4720e-02,-0.0125313
-4.4700e-02,-0.00346875
-4.4680e-02,-0.000945312
-4.4660e-02,-0.00452344
-4.4640e-02,-0.00817188
-4.4620e-02,0.00285938
-4.4600e-02,0.000625
-4.4580e-02,-0.0131797
-4.4560e-02,-0.005375
-4.4540e-02,0.00172656
-4.4520e-02,0.00551562
-4.4500e-02,-0.0029375
-4.4480e-02,-0.0139063
-4.4460e-02,-0.0065625
-4.4440e-02,0.00104687
-4.4420e-02,-0.00472656
-4.4400e-02,0.00105469
-4.4380e-02,0.00352344
-4.4360e-02,-0.0109297
-4.4340e-02,-0.00310938
-4.4320e-02,-0.000570312
-4.4300e-02,-0.0123125
-4.4280e-02,0.000351562
-4.4260e-02,0.00219531
-4.4240e-02,-0.00348438
-4.4220e-02,-0.00571094
-4.4200e-02,-0.00882813
-4.4180e-02,-0.0106953
-4.4160e-02,0.00483594
-4.4140e-02,-0.000265625
-4.4120e-02,-0.000632812
-4.4100e-02,-0.00603125
-4.4080e-02,-0.00875
-4.4060e-02,-0.00635938
-4.4040e-02,-0.00153906
-4.4020e-02,-0.00510156
-4.4000e-02,0.0025
-4.3980e-02,-0.00065625
-4.3960e-02,-0.0126484
-4.3940e-02,-0.00275
-4.3920e-02,1.5625e-05
-4.3900e-02,-0.00711719
-4.3880e-02,0.00825
-4.3860e-02,0.00260156
-4.3840e-02,-0.00485156
-4.3820e-02,-0.00224219
-4.3800e-02,-0.00545312
-4.3780e-02,-0.00473438
-4.3760e-02,-0.0161641
-4.3740e-02,0.0015
-4.3720e-02,-0.00649219
-4.3700e-02,0.00158594
-4.3680e-02,-0.0124609
-4.3660e-02,-0.0098125
-4.3640e-02,-0.00516406
-4.3620e-02,-0.0111953
-4.3600e-02,-0.0014375
-4.3580e-02,0.00378125
-4.3560e-02,-0.00392969
-4.3540e-02,-0.0029375
-4.3520e-02,-0.00544531
-4.3500e-02,-0.00672656
-4.3480e-02,0.00294531
-4.3460e-02,-0.00454688
-4.3440e-02,-0.0120547
-4.3420e-02,0.00078125
-4.3400e-02,-0.0054375
-4.3380e-02,-0.000742187
-4.3360e-02,2.34375e-05
-4.3340e-02,-0.016875
-4.3320e-02,-0.0100938
-4.3300e-02,0.00153125
-4.3280e-02,-0.00435156
-4.3260e-02,-0.0011875
-4.3240e-02,-0.00461719
-4.3220e-02,-0.0185234
-4.3200e-02,-0.00515625
-4.3180e-02,-0.006625
-4.3160e-02,-0.00792188
-4.3140e-02,-0.00874219
-4.3120e-02,-0.00582031
-4.3100e-02,-0.00882813
-4.3080e-02,0.00650781
-4.3060e-02,-0.0101406
-4.3040e-02,-0.00974219
-4.3020e-02,0.00501562
-4.3000e-02,0.00160156
-4.2980e-02,-0.00772656
-4.2960e-02,0.00530469
-4.2940e-02,0.00172656
-4.2920e-02,-0.000835937
-4.2900e-02,-0.00199219
-4.2880e-02,-0.0112812
-4.2860e-02,-0.0121641
-4.2840e-02,-0.0065
-4.2820e-02,-0.00697656
-4.2800e-02,-0.0120234
-4.2780e-02,-0.00421094
-4.2760e-02,-0.0106406
-4.2740e-02,-0.00977344
-4.2720e-02,-0.00515625
-4.2700e-02,-0.00982031
-4.2680e-02,-0.00407813
-4.2660e-02,0.00363281
-4.2640e-02,-0.00297656
-4.2620e-02,-0.00396094
-4.2600e-02,-0.0061875
-4.2580e-02,-0.014
-4.2560e-02,0.00240625
-4.2540e-02,-0.00271875
-4.2520e-02,-0.00635156
-4.2500e-02,-0.00363281
-4.2480e-02,-0.00582031
-4.2460e-02,-0.01125
-4.2440e-02,0.00107812
-4.2420e-02,-0.00189062
-4.2400e-02,-0.0106875
-4.2380e-02,-0.00741406
-4.2360e-02,-0.00208594
-4.2340e-02,-0.00717969
-4.2320e-02,-0.000382813
-4.2300e-02,-0.00867969
-4.2280e-02,-0.0138828
-4.2260e-02,-0.0133203
-4.2240e-02,-0.0100859
-4.2220e-02,-0.00492969
-4.2200e-02,0.0011875
-4.2180e-02,-0.0122656
-4.2160e-02,-0.00615625
-4.2140e-02,0.00410938
-4.2120e-02,-0.00783594
-4.2100e-02,-0.00435938
-4.2080e-02,0.000179687
-4.2060e-02,0.000882812
-4.2040e-02,0.000976562
-4.2020e-02,-0.000820312
-4.2000e-02,-0.00766406
-4.1980e-02,-0.000320313
-4.1960e-02,-7.8125e-06
-4.1940e-02,-0.00809375
-4.1920e-02,-0.00622656
-4.1900e-02,-0.00702344
-4.1880e-02,-0.0171562
-4.1860e-02,-0.0104453
-4.1840e-02,-0.0101484
-4.1820e-02,-0.0107031
-4.1800e-02,-0.00379687
-4.1780e-02,0.000914062
-4.1760e-02,-0.00860156
-4.1740e-02,-0.00179687
-4.1720e-02,-0.00509375
-4.1700e-02,-0.00875781
-4.1680e-02,-0.0005
-4.1660e-02,-0.00438281
-4.1640e-02,-0.0147656
-4.1620e-02,-0.00926562
-4.1600e-02,-0.00940625
-4.1580e-02,-0.00980469
-4.1560e-02,0.00363281
-4.1540e-02,0.00120312
-4.1520e-02,-0.0119922
-4.1500e-02,-0.00442188
-4.1480e-02,-0.00452344
-4.1460e-02,-0.00939062
-4.1440e-02,-0.00417188
-4.1420e-02,-0.0099375
-4.1400e-02,-0.0182734
-4.1380e-02,-0.00572656
-4.1360e-02,-0.00492969
-4.1340e-02,-0.00619531
-4.1320e-02,-0.00457813
-4.1300e-02,-0.00841406
-4.1280e-02,-0.00201563
-4.1260e-02,-0.000367188
-4.1240e-02,-0.0020625
-4.1220e-02,-7.03125e-05
-4.1200e-02,0.00566406
-4.1180e-02,-0.00469531
-4.1160e-02,-0.0129922
-4.1140e-02,-0.00442969
-4.1120e-02,-0.0100859
-4.1100e-02,-0.00732813
-4.1080e-02,-0.00391406
-4.1060e-02,-0.00669531
-4.1040e-02,-0.00973437
-4.1020e-02,-0.0003125
-4.1000e-02,-0.00189844
-4.0980e-02,-0.00483594
-4.0960e-02,-0.000890625
-4.0940e-02,-0.0104688
-4.0920e-02,-0.0137656
-4.0900e-02,-0.00450781
-4.0880e-02,-0.0142891
-4.0860e-02,-0.0132266
-4.0840e-02,-0.00608594
-4.0820e-02,-0.00745312
-4.0800e-02,-0.0076875
-4.0780e-02,0.00636719
-4.0760e-02,-0.00640625
-4.0740e-02,-0.0100781
-4.0720e-02,-0.00025
-4.0700e-02,-0.0050625
-4.0680e-02,-0.00710156
-4.0660e-02,0.00128906
-4.0640e-02,-0.0123594
-4.0620e-02,-0.00939062
-4.0600e-02,-0.00169531
-4.0580e-02,-0.00101563
-4.0560e-02,-0.0118281
-4.0540e-02,0.00409375
-4.0520e-02,-0.00833594
-4.0500e-02,-0.0108594
-4.0480e-02,0.00175781
-4.0460e-02,-0.00396094
-4.0440e-02,-0.0083125
-4.0420e-02,-0.00672656
-4.0400e-02,-0.00517969
-4.0380e-02,-0.0109609
-4.0360e-02,0.00103906
-4.0340e-02,-0.0033125
-4.0320e-02,-0.00909375
-4.0300e-02,-0.00432031
-4.0280e-02,-0.00525781
-4.0260e-02,-0.0101484
-4.0240e-02,-0.00113281
-4.0220e-02,-0.0021875
-4.0200e-02,-0.00853906
-4.0180e-02,-0.0111406
-4.0160e-02,-0.000109375
-4.0140e-02,-0.00734375
-4.0120e-02,-0.00151562
-4.0100e-02,-0.00339063
-4.0080e-02,-0.00657813
-4.0060e-02,-0.0105625
-4.0040e-02,-0.00178906
-4.0020e-02,-0.0138594
-4.0000e-02,0.00120312
-3.9980e-02,-0.000664062
-3.9960e-02,-0.0101797
-3.9940e-02,0.00015625
-3.9920e-02,-0.00597656
-3.9900e-02,-0.00825
-3.9880e-02,-0.00760156
-3.9860e-02,-0.00823438
-3.9840e-02,-0.0142031
-3.9820e-02,-0.00667187
-3.9800e-02,-0.0122266
-3.9780e-02,-0.0102891
-3.9760e-02,-0.005875
-3.9740e-02,-0.00939844
-3.9720e-02,-0.00628125
-3.9700e-02,-0.00116406
-3.9680e-02,0.00565625
-3.9660e-02,-0.00471875
-3.9640e-02,-0.0100234
-3.9620e-02,-0.00028125
-3.9600e-02,-0.00396875
-3.9580e-02,-0.003625
-3.9560e-02,-0.00365625
-3.9540e-02,-0.00963281
-3.9520e-02,-0.0219688
-3.9500e-02,-0.00128906
-3.9480e-02,-0.0119531
-3.9460e-02,-0.00460938
-3.9440e-02,-0.00264062
-3.9420e-02,-0.00813281
-3.9400e-02,-0.000945312
-3.9380e-02,0.00396875
-3.9360e-02,-0.00698438
-3.9340e-02,-0.00620313
-3.9320e-02,0.00578125
-3.9300e-02,0.00314844
-3.9280e-02,-0.00703906
-3.9260e-02,-0.00248438
-3.9240e-02,0.00264844
-3.9220e-02,-0.00882031
-3.9200e-02,-0.00535937
-3.9180e-02,-0.00971875
-3.9160e-02,-0.0130078
-3.9140e-02,-0.0137891
-3.9120e-02,-0.00997656
-3.9100e-02,-0.0083125
-3.9080e-02,-0.00510938
-3.9060e-02,-0.00145313
-3.9040e-02,-0.0101875
-3.9020e-02,-0.008
-3.9000e-02,0.00417188
-3.8980e-02,0.00461719
-3.8960e-02,-0.00471094
-3.8940e-02,0.00352344
-3.8920e-02,0.00642969
-3.8900e-02,-0.00169531
-3.8880e-02,-0.00113281
-3.8860e-02,-0.0019375
-3.8840e-02,-0.0110312
-3.8820e-02,-0.000109375
-3.8800e-02,-0.00824219
-3.8780e-02,-0.00442969
-3.8760e-02,-0.00869531
-3.8740e-02,-0.009375
-3.8720e-02,-0.00161719
-3.8700e-02,-0.00670312
-3.8680e-02,0.00224219
-3.8660e-02,-0.00482031
-3.8640e-02,-0.00550781
-3.8620e-02,-0.00188281
-3.8600e-02,-0.00925781
-3.8580e-02,-0.00734375
-3.8560e-02,-0.00540625
-3.8540e-02,-0.00749219
-3.8520e-02,-0.00721875
-3.8500e-02,-0.00353906
-3.8480e-02,0.00294531
-3.8460e-02,-0.00250781
-3.8440e-02,-0.00192969
-3.8420e-02,-0.00823438
-3.8400e-02,-0.00786719
-3.8380e-02,-0.00408594
-3.8360e-02,0.000109375
-3.8340e-02,0.000195312
-3.8320e-02,-0.0117188
-3.8300e-02,-0.00434375
-3.8280e-02,-0.00574219
-3.8260e-02,-0.00846875
-3.8240e-02,0.00520312
-3.8220e-02,-0.00192969
-3.8200e-02,-0.00999219
-3.8180e-02,0.00233594
-3.8160e-02,-0.00990625
-3.8140e-02,-0.0110078
-3.8120e-02,0.00245313
-3.8100e-02,0.00192187
-3.8080e-02,-0.00824219
-3.8060e-02,-0.00120313
-3.8040e-02,-0.00267969
-3.8020e-02,-0.00836719
-3.8000e-02,0.00646094
-3.7980e-02,0.00530469
-3.7960e-02,-0.000226563
-3.7940e-02,0.00434375
-3.7920e-02,-0.00046875
-3.7900e-02,-0.0107344
-3.7880e-02,-0.00899219
-3.7860e-02,-0.0090625
-3.7840e-02,-0.0161172
-3.7820e-02,-0.0125625
-3.7800e-02,-0.0124375
-3.7780e-02,-0.00285156
-3.7760e-02,-0.004375
-3.7740e-02,0.00134375
-3.7720e-02,0.00704687
-3.7700e-02,0.00271875
-3.7680e-02,-0.0261484
-3.7660e-02,0.0094375
-3.7640e-02,0.00240625
-3.7620e-02,-0.00765625
-3.7600e-02,-0.0112891
-3.7580e-02,0.000289062
-3.7560e-02,-0.00157812
-3.7540e-02,-0.00473438
-3.7520e-02,-0.00582812
-3.7500e-02,-0.00297656
-3.7480e-02,0.00686719
-3.7460e-02,-0.00413281
-3.7440e-02,0.00171875
-3.7420e-02,-0.00250781
-3.7400e-02,-0.0124297
-3.7380e-02,-0.00966406
-3.7360e-02,-0.00520313
-3.7340e-02,-0.0120156
-3.7320e-02,-0.00372656
-3.7300e-02,-0.00164844
-3.7280e-02,-0.0125625
-3.7260e-02,-0.00550781
-3.7240e-02,0.00663281
-3.7220e-02,-0.005125
-3.7200e-02,-0.00567187
-3.7180e-02,0.0115234
-3.7160e-02,-0.00503125
-3.7140e-02,-0.000898437
-3.7120e-02,0.00388281
-3.7100e-02,0.00291406
-3.7080e-02,-0.000328125
-3.7060e-02,-0.00471875
-3.7040e-02,-0.00964062
-3.7020e-02,-0.00602344
-3.7000e-02,7.8125e-05
-3.6980e-02,-0.00479687
-3.6960e-02,0.00096875
-3.6940e-02,0.00714844
-3.6920e-02,-0.00357031
-3.6900e-02,0.000289062
-3.6880e-02,0.002
-3.6860e-02,-0.0109922
-3.6840e-02,-0.00273437
-3.6820e-02,-0.00478906
-3.6800e-02,-0.00839844
-3.6780e-02,-0.00145313
-3.6760e-02,-0.00114844
-3.6740e-02,0.00455469
-3.6720e-02,-0.00452344
-3.6700e-02,-0.00457813
-3.6680e-02,-0.00232813
-3.6660e-02,-0.00234375
-3.6640e-02,-0.000773437
-3.6620e-02,-0.00297656
-3.6600e-02,0.00138281
-3.6580e-02,-0.0126641
-3.6560e-02,-0.00892188
-3.6540e-02,-0.0107344
-3.6520e-02,-0.00458594
-3.6500e-02,-0.000296875
-3.6480e-02,-0.00247656
-3.6460e-02,-0.00902344
-3.6440e-02,0.00914062
-3.6420e-02,0.00499219
-3.6400e-02,-0.00745312
-3.6380e-02,0.0108281
-3.6360e-02,0.0127266
-3.6340e-02,-0.00509375
-3.6320e-02,-0.00332813
-3.6300e-02,-0.000960937
-3.6280e-02,0.008625
-3.6260e-02,-0.00288281
-3.6240e-02,-0.00908594
-3.6220e-02,-0.0100469
-3.6200e-02,-0.0148281
-3.6180e-02,-0.00989844
-3.6160e-02,-0.0135
-3.6140e-02,0.00605469
-3.6120e-02,0.000710937
-3.6100e-02,0.000976562
-3.6080e-02,0.00363281
-3.6060e-02,0.00367187
-3.6040e-02,0.0114922
-3.6020e-02,0.00110156
-3.6000e-02,-0.00707813
-3.5980e-02,-0.00103906
-3.5960e-02,0.00653125
-3.5940e-02,-0.00386719
-3.5920e-02,0.00469531
-3.5900e-02,-0.00285156
-3.5880e-02,-0.0084375
-3.5860e-02,-0.00321875
-3.5840e-02,-0.0150859
-3.5820e-02,-0.00572656
-3.5800e-02,-0.0019375
-3.5780e-02,0.00140625
-3.5760e-02,-0.00275
-3.5740e-02,-0.00132031
-3.5720e-02,-0.00869531
-3.5700e-02,-0.0117891
-3.5680e-02,0.00335156
-3.5660e-02,-0.00608594
-3.5640e-02,0.0019375
-3.5620e-02,-0.00475
-3.5600e-02,-0.00336719
-3.5580e-02,0.0118984
-3.5560e-02,0.00207031
-3.5540e-02,0.00183594
-3.5520e-02,0.00471875
-3.5500e-02,0.0049375
-3.5480e-02,-0.00810938
-3.5460e-02,-0.0030625
-3.5440e-02,-0.00150781
-3.5420e-02,-0.00722656
-3.5400e-02,0.00154687
-3.5380e-02,-0.00292187
-3.5360e-02,-0.00721875
-3.5340e-02,-0.0137656
-3.5320e-02,0.001375
-3.5300e-02,-0.00366406
-3.5280e-02,0.00157812
-3.5260e-02,0.00602344
-3.5240e-02,-0.00213281
-3.5220e-02,0.0107578
-3.5200e-02,-0.00370312
-3.5180e-02,0.00533594
-3.5160e-02,0.00128906
-3.5140e-02,-0.00071875
-3.5120e-02,0.00152344
-3.5100e-02,-0.00607813
-3.5080e-02,-0.00739063
-3.5060e-02,-0.00975
-3.5040e-02,-0.00684375
-3.5020e-02,0.00110937
-3.5000e-02,0.0119531
-3.4980e-02,-0.00780469
-3.4960e-02,-0.00186719
-3.4940e-02,0.0111797
-3.4920e-02,0.00649219
-3.4900e-02,0.0083125
-3.4880e-02,0.0071875
-3.4860e-02,-0.000453125
-3.4840e-02,0.00885937
-3.4820e-02,0.0104531
-3.4800e-02,-0.00861719
-3.4780e-02,0.00310156
-3.4760e-02,-0.007
-3.4740e-02,-0.013625
-3.4720e-02,-0.00425781
-3.4700e-02,-0.00507031
-3.4680e-02,-0.00932812
-3.4660e-02,0.00967969
-3.4640e-02,0.004625
-3.4620e-02,-0.000265625
-3.4600e-02,0.0013125
-3.4580e-02,-0.00192969
-3.4560e-02,-0.00649219
-3.4540e-02,0.0111719
-3.4520e-02,0.000257812
-3.4500e-02,-0.00550781
-3.4480e-02,0.000867187
-3.4460e-02,-0.00534375
-3.4440e-02,0.001125
-3.4420e-02,0.00944531
-3.4400e-02,-0.0038125
-3.4380e-02,-0.00414063
